﻿TargetImage,ptrials.thisRepN,ptrials.thisTrialN,ptrials.thisN,ptrials.thisIndex,thisRow.t,notes,welcome.started,welcome_message.started,spacebar_welcome.started,welcome.stopped,spacebar_welcome.keys,spacebar_welcome.rt,spacebar_welcome.duration,instructions_general.started,instructions_general_text.started,spacebar_instructions_general.started,dot.started,instructions_general.stopped,spacebar_instructions_general.keys,spacebar_instructions_general.rt,spacebar_instructions_general.duration,instructions_shape.started,instructions_shape_text.started,spacebar_instructions_shape.started,instr_shape_square.started,instr_shape_cross.started,instr_shape_plus.started,instructions_shape.stopped,spacebar_instructions_shape.keys,spacebar_instructions_shape.rt,spacebar_instructions_shape.duration,ptrial.started,ptrial_shape_square.started,ptrial_shape_cross.started,ptrial_shape_plus.started,left_far_tile.started,left_mid_tile.started,right_mid_tile.started,right_far_tile.started,target_image.started,target_image.stopped,ptrial.stopped,keyboard_response.keys,keyboard_response.corr,keyboard_response.rt,keyboard_response.duration,trialRespTimes,pFeedback.started,pFeedback_text.started,keyboard_response_feedback.started,pFeedback.stopped,keyboard_response_feedback.keys,keyboard_response_feedback.rt,keyboard_response_feedback.duration,end_screen.started,end_screen_instructions.started,spacebar_end.started,end_screen.stopped,spacebar_end.keys,spacebar_end.rt,spacebar_end.duration,participant,session,age,left-handed,Do you like this session?,output-path,date,expName,psychopyVersion,frameRate,expStart,
,,,,,,,0.006253200001083314,0.01195200000074692,0.01195200000074692,1.3851809000007052,space,1.3663315000012517,None,,,,,,,,,,,,,,,,,,,,,,,,,,,,,,,,,,,,,,,,,,,,,,,,,,,,False,Yes,\\wsl.localhost\Ubuntu-20.04\home\annalinux\NOWA_school\choice_rtt\sourcedata,2024-02-13_16h00.26.247,crrt_exp,2023.2.3,60.043110953405524,2024-02-13 16h00.38.628217 +0100,
,,,,,,,,,,,,,,1.385224500001641,1.4007730000012089,1.4007730000012089,1.4007730000012089,3.5674451000013505,space,2.1557716999996046,None,,,,,,,,,,,,,,,,,,,,,,,,,,,,,,,,,,,,,,,,,,,,False,Yes,\\wsl.localhost\Ubuntu-20.04\home\annalinux\NOWA_school\choice_rtt\sourcedata,2024-02-13_16h00.26.247,crrt_exp,2023.2.3,60.043110953405524,2024-02-13 16h00.38.628217 +0100,
,,,,,,,,,,,,,,,,,,,,,,3.567485499999748,3.623686999999336,3.623686999999336,3.623686999999336,3.623686999999336,3.623686999999336,4.467481700001372,space,0.8340863999983412,None,,,,,,,,,,,,,,,,,,,,,,,,,,,,,,,,,,False,Yes,\\wsl.localhost\Ubuntu-20.04\home\annalinux\NOWA_school\choice_rtt\sourcedata,2024-02-13_16h00.26.247,crrt_exp,2023.2.3,60.043110953405524,2024-02-13 16h00.38.628217 +0100,
../../stimuli/shapes/target_plus.jpg,0,0,0,4,4.585011200000736,,,,,,,,,,,,,,,,,,,,,,,,,,,4.487505900000542,4.585011200000736,4.585011200000736,4.585011200000736,4.98236850000103,4.98236850000103,4.98236850000103,4.98236850000103,5.534125400001358,5.747653700000228,6.498723400000017,v,0,1.9220473999994283,None,0.9220473999994283,6.499582200001896,6.517639400000917,6.517639400000917,8.012922900001286,space,1.4866741000005277,None,,,,,,,,,,,False,Yes,\\wsl.localhost\Ubuntu-20.04\home\annalinux\NOWA_school\choice_rtt\sourcedata,2024-02-13_16h00.26.247,crrt_exp,2023.2.3,60.043110953405524,2024-02-13 16h00.38.628217 +0100,
../../stimuli/shapes/target_square.jpg,0,1,1,5,8.129818699999305,,,,,,,,,,,,,,,,,,,,,,,,,,,8.013495800001692,8.129818699999305,8.129818699999305,8.129818699999305,8.528696699999273,8.528696699999273,8.528696699999273,8.528696699999273,9.22872610000195,9.42802329999904,9.962742300001992,v,1,1.825367000001279,None,0.625367000001279,9.963317699999607,9.977206999999908,9.977206999999908,10.778073199999199,space,0.7975810999996611,None,,,,,,,,,,,False,Yes,\\wsl.localhost\Ubuntu-20.04\home\annalinux\NOWA_school\choice_rtt\sourcedata,2024-02-13_16h00.26.247,crrt_exp,2023.2.3,60.043110953405524,2024-02-13 16h00.38.628217 +0100,
../../stimuli/shapes/target_square.jpg,0,2,2,2,10.875420600001235,,,,,,,,,,,,,,,,,,,,,,,,,,,10.77846209999916,10.875420600001235,10.875420600001235,10.875420600001235,11.29287900000054,11.29287900000054,11.29287900000054,11.29287900000054,,,11.861632700001792,b,0,0.9778413000021828,None,-0.6221586999978173,11.86227670000153,11.878311000000394,11.878311000000394,12.378890700001648,space,0.497279700000945,None,,,,,,,,,,,False,Yes,\\wsl.localhost\Ubuntu-20.04\home\annalinux\NOWA_school\choice_rtt\sourcedata,2024-02-13_16h00.26.247,crrt_exp,2023.2.3,60.043110953405524,2024-02-13 16h00.38.628217 +0100,
../../stimuli/shapes/target_cross.jpg,0,3,3,3,12.468912700001965,,,,,,,,,,,,,,,,,,,,,,,,,,,12.379635500001314,12.468912700001965,12.468912700001965,12.468912700001965,12.891640400001052,12.891640400001052,12.891640400001052,12.891640400001052,,,13.176366899999266,b,0,0.7011171000012837,None,-0.6988828999987162,13.17685750000237,13.190794900001492,13.190794900001492,13.459055400002399,space,0.25635650000185706,None,,,,,,,,,,,False,Yes,\\wsl.localhost\Ubuntu-20.04\home\annalinux\NOWA_school\choice_rtt\sourcedata,2024-02-13_16h00.26.247,crrt_exp,2023.2.3,60.043110953405524,2024-02-13 16h00.38.628217 +0100,
../../stimuli/shapes/target_cross.jpg,0,4,4,1,13.541689300000144,,,,,,,,,,,,,,,,,,,,,,,,,,,13.459756600001128,13.541689300000144,13.541689300000144,13.541689300000144,,,,,,,13.844211100000393,b,0,0.30370400000174413,None,-1.296295999998256,13.845065100002103,13.856847300001391,13.856847300001391,14.091819100001885,space,0.22356650000074296,None,,,,,,,,,,,False,Yes,\\wsl.localhost\Ubuntu-20.04\home\annalinux\NOWA_school\choice_rtt\sourcedata,2024-02-13_16h00.26.247,crrt_exp,2023.2.3,60.043110953405524,2024-02-13 16h00.38.628217 +0100,
../../stimuli/shapes/target_plus.jpg,0,5,5,0,14.170967400001246,,,,,,,,,,,,,,,,,,,,,,,,,,,14.092756199999712,14.170967400001246,14.170967400001246,14.170967400001246,,,,,,,14.442132700001821,b,1,0.26124649999837857,None,-1.5387535000016215,14.442699200000789,14.456427200002508,14.456427200002508,14.625003500001185,space,0.15160720000130823,None,,,,,,,,,,,False,Yes,\\wsl.localhost\Ubuntu-20.04\home\annalinux\NOWA_school\choice_rtt\sourcedata,2024-02-13_16h00.26.247,crrt_exp,2023.2.3,60.043110953405524,2024-02-13 16h00.38.628217 +0100,
,,,,,,,,,,,,,,,,,,,,,,,,,,,,,,,,,,,,,,,,,,,,,,,,,,,,,,,14.625496799999382,14.639629799999966,14.639629799999966,15.024618300001748,space,0.37605970000004163,None,,,,False,Yes,\\wsl.localhost\Ubuntu-20.04\home\annalinux\NOWA_school\choice_rtt\sourcedata,2024-02-13_16h00.26.247,crrt_exp,2023.2.3,60.043110953405524,2024-02-13 16h00.38.628217 +0100,
