301.0472 	WARNING 	User requested fullscreen with size [1280  720], but screen is actually [1920, 1080]. Using actual size
302.6068 	EXP 	Created window1 = Window(allowGUI=True, allowStencil=False, autoLog=True, backendConf=UNKNOWN, backgroundFit=<method-wrapper '__getattribute__' of attributeSetter object at 0x00000268F36A2CA0>, backgroundImage=<method-wrapper '__getattribute__' of attributeSetter object at 0x00000268F36A2C40>, bitsMode=UNKNOWN, blendMode='avg', bpc=(8, 8, 8), color=array([0, 0, 0]), colorSpace='rgb', depthBits=8, fullscr=<method-wrapper '__getattribute__' of attributeSetter object at 0x00000268F36A2A60>, gamma=None, gammaErrorPolicy='raise', lms=UNKNOWN, monitor=<psychopy.monitors.calibTools.Monitor object at 0x00000268F3ABEE50>, multiSample=False, name='window1', numSamples=2, pos=(0, 0), screen=0, size=array([1920, 1080]), stencilBits=0, stereo=False, title='PsychoPy', units='height', useFBO=True, useRetina=False, viewOri=0.0, viewPos=None, viewScale=None, waitBlanking=True, winType='pyglet')
302.6073 	EXP 	window1: mouseVisible = True
302.6073 	EXP 	window1: backgroundImage = ''
302.6073 	EXP 	window1: backgroundFit = 'none'
302.6092 	EXP 	window1: Attempting to measure frame rate of screen (0) ...
302.6093 	EXP 	window1: recordFrameIntervals = False
302.7732 	EXP 	window1: recordFrameIntervals = True
302.9427 	WARNING 	t of last frame was 53.18ms (=1/18)
303.1230 	EXP 	Screen (0) actual frame rate measured at 60.01Hz
303.1231 	EXP 	window1: recordFrameIntervals = False
303.1233 	EXP 	window1: mouseVisible = False
305.5749 	EXP 	crrt_exp: status = STARTED
305.5753 	EXP 	window1: mouseVisible = True
305.6291 	EXP 	Created welcome_message = TextStim(__class__=<class 'psychopy.visual.text.TextStim'>, alignHoriz=method-wrapper(...), alignText='center', alignVert=method-wrapper(...), anchorHoriz='center', anchorVert='center', antialias=True, autoDraw=False, autoLog=True, bold=False, color=array([1., 1., 1.]), colorSpace='rgb', contrast=1.0, depth=0.0, draggable=False, flipHoriz=False, flipVert=False, font='Open Sans', fontFiles=[], height=0.05, italic=False, languageStyle='LTR', name='welcome_message', opacity=1.0, ori=0.0, pos=array([0., 0.]), rgb=UNKNOWN, text=str(...), units='height', win=Window(...), wrapWidth=1)
305.6292 	EXP 	window1: mouseVisible = True
305.6483 	EXP 	Created instructions_general_text = TextStim(__class__=<class 'psychopy.visual.text.TextStim'>, alignHoriz=method-wrapper(...), alignText='center', alignVert=method-wrapper(...), anchorHoriz='center', anchorVert='center', antialias=True, autoDraw=False, autoLog=True, bold=False, color=array([1., 1., 1.]), colorSpace='rgb', contrast=1.0, depth=0.0, draggable=False, flipHoriz=False, flipVert=False, font='Open Sans', fontFiles=[], height=0.05, italic=False, languageStyle='LTR', name='instructions_general_text', opacity=1.0, ori=0.0, pos=array([0., 0.]), rgb=UNKNOWN, text=str(...), units='height', win=Window(...), wrapWidth=1)
305.6484 	EXP 	window1: mouseVisible = True
305.6510 	EXP 	Created dot = ShapeStim(__class__=<class 'psychopy.visual.shape.ShapeStim'>, anchor=('center', 'center'), autoDraw=False, autoLog=True, closeShape=True, color=method-wrapper(...), colorSpace='rgb', contrast=None, depth=-2.0, draggable=False, fillColor=array([1, 1, 1]), fillColorSpace='rgb', fillRGB=array([1, 1, 1]), interpolate=True, lineColor=array([1., 1., 1.]), lineColorSpace='rgb', lineRGB=array([1, 1, 1]), lineWidth=1.0, name='dot', opacity=1.0, ori=0.0, pos=array([0., 0.]), size=array([0.5, 0.5]), units='height', vertices=ndarray(...), win=Window(...), windingRule=None)
305.6511 	EXP 	window1: mouseVisible = True
305.6676 	EXP 	Created instructions_shape_text = TextStim(__class__=<class 'psychopy.visual.text.TextStim'>, alignHoriz=method-wrapper(...), alignText='center', alignVert=method-wrapper(...), anchorHoriz='center', anchorVert='center', antialias=True, autoDraw=False, autoLog=True, bold=False, color=array([1., 1., 1.]), colorSpace='rgb', contrast=1.0, depth=0.0, draggable=False, flipHoriz=False, flipVert=False, font='Open Sans', fontFiles=[], height=0.035, italic=False, languageStyle='LTR', name='instructions_shape_text', opacity=1.0, ori=0.0, pos=array([0. , 0.1]), rgb=UNKNOWN, text=str(...), units='height', win=Window(...), wrapWidth=1)
305.6678 	EXP 	window1: mouseVisible = True
305.8411 	EXP 	Created instr_shape_square = ImageStim(__class__=<class 'psychopy.visual.image.ImageStim'>, anchor=('center', 'center'), autoLog=True, color=array([1., 1., 1.]), colorSpace='rgb', contrast=1.0, depth=-2.0, draggable=False, flipHoriz=False, flipVert=False, image=str(...), interpolate=True, mask=None, maskParams=None, name='instr_shape_square', opacity=1.0, ori=0.0, pos=array([ 0.  , -0.25]), size=array([0.2, 0.1]), texRes=128.0, units='height', win=Window(...))
305.8412 	EXP 	window1: mouseVisible = True
306.0097 	EXP 	Created instr_shape_cross = ImageStim(__class__=<class 'psychopy.visual.image.ImageStim'>, anchor=('center', 'center'), autoLog=True, color=array([1., 1., 1.]), colorSpace='rgb', contrast=1.0, depth=-3.0, draggable=False, flipHoriz=False, flipVert=False, image=str(...), interpolate=True, mask=None, maskParams=None, name='instr_shape_cross', opacity=1.0, ori=0.0, pos=array([-0.25, -0.25]), size=array([0.2, 0.1]), texRes=128.0, units='height', win=Window(...))
306.0098 	EXP 	window1: mouseVisible = True
306.1618 	EXP 	Created instr_shape_plus = ImageStim(__class__=<class 'psychopy.visual.image.ImageStim'>, anchor=('center', 'center'), autoLog=True, color=array([1., 1., 1.]), colorSpace='rgb', contrast=1.0, depth=-4.0, draggable=False, flipHoriz=False, flipVert=False, image=str(...), interpolate=True, mask=None, maskParams=None, name='instr_shape_plus', opacity=1.0, ori=0.0, pos=array([ 0.25, -0.25]), size=array([0.2, 0.1]), texRes=128.0, units='height', win=Window(...))
306.1619 	EXP 	window1: mouseVisible = True
306.3129 	EXP 	Created ptrial_shape_square = ImageStim(__class__=<class 'psychopy.visual.image.ImageStim'>, anchor=('center', 'center'), autoLog=True, color=array([1., 1., 1.]), colorSpace='rgb', contrast=1.0, depth=-1.0, draggable=False, flipHoriz=False, flipVert=False, image=str(...), interpolate=True, mask=None, maskParams=None, name='ptrial_shape_square', opacity=1.0, ori=0.0, pos=array([ 0.  , -0.25]), size=array([0.2, 0.1]), texRes=128.0, units='height', win=Window(...))
306.3130 	EXP 	window1: mouseVisible = True
306.4912 	EXP 	Created ptrial_shape_cross = ImageStim(__class__=<class 'psychopy.visual.image.ImageStim'>, anchor=('center', 'center'), autoLog=True, color=array([1., 1., 1.]), colorSpace='rgb', contrast=1.0, depth=-2.0, draggable=False, flipHoriz=False, flipVert=False, image=str(...), interpolate=True, mask=None, maskParams=None, name='ptrial_shape_cross', opacity=1.0, ori=0.0, pos=array([-0.25, -0.25]), size=array([0.2, 0.1]), texRes=128.0, units='height', win=Window(...))
306.4913 	EXP 	window1: mouseVisible = True
306.6986 	EXP 	Created ptrial_shape_plus = ImageStim(__class__=<class 'psychopy.visual.image.ImageStim'>, anchor=('center', 'center'), autoLog=True, color=array([1., 1., 1.]), colorSpace='rgb', contrast=1.0, depth=-3.0, draggable=False, flipHoriz=False, flipVert=False, image=str(...), interpolate=True, mask=None, maskParams=None, name='ptrial_shape_plus', opacity=1.0, ori=0.0, pos=array([ 0.25, -0.25]), size=array([0.2, 0.1]), texRes=128.0, units='height', win=Window(...))
306.6987 	EXP 	window1: mouseVisible = True
306.7735 	EXP 	Created left_far_tile = ImageStim(__class__=<class 'psychopy.visual.image.ImageStim'>, anchor=('center', 'center'), autoLog=True, color=array([1., 1., 1.]), colorSpace='rgb', contrast=1.0, depth=-4.0, draggable=False, flipHoriz=False, flipVert=False, image=str(...), interpolate=True, mask=None, maskParams=None, name='left_far_tile', opacity=1.0, ori=0.0, pos=array([-0.375,  0.   ]), size=array([0.22, 0.22]), texRes=128.0, units='height', win=Window(...))
306.7736 	EXP 	window1: mouseVisible = True
306.8483 	EXP 	Created left_mid_tile = ImageStim(__class__=<class 'psychopy.visual.image.ImageStim'>, anchor=('center', 'center'), autoLog=True, color=array([1., 1., 1.]), colorSpace='rgb', contrast=1.0, depth=-5.0, draggable=False, flipHoriz=False, flipVert=False, image=str(...), interpolate=True, mask=None, maskParams=None, name='left_mid_tile', opacity=1.0, ori=0.0, pos=array([-0.125,  0.   ]), size=array([0.22, 0.22]), texRes=128.0, units='height', win=Window(...))
306.8484 	EXP 	window1: mouseVisible = True
306.9287 	EXP 	Created right_mid_tile = ImageStim(__class__=<class 'psychopy.visual.image.ImageStim'>, anchor=('center', 'center'), autoLog=True, color=array([1., 1., 1.]), colorSpace='rgb', contrast=1.0, depth=-6.0, draggable=False, flipHoriz=False, flipVert=False, image=str(...), interpolate=True, mask=None, maskParams=None, name='right_mid_tile', opacity=1.0, ori=0.0, pos=array([0.125, 0.   ]), size=array([0.22, 0.22]), texRes=128.0, units='height', win=Window(...))
306.9288 	EXP 	window1: mouseVisible = True
307.0088 	EXP 	Created right_far_tile = ImageStim(__class__=<class 'psychopy.visual.image.ImageStim'>, anchor=('center', 'center'), autoLog=True, color=array([1., 1., 1.]), colorSpace='rgb', contrast=1.0, depth=-7.0, draggable=False, flipHoriz=False, flipVert=False, image=str(...), interpolate=True, mask=None, maskParams=None, name='right_far_tile', opacity=1.0, ori=0.0, pos=array([0.375, 0.   ]), size=array([0.22, 0.22]), texRes=128.0, units='height', win=Window(...))
307.0089 	EXP 	window1: mouseVisible = True
307.0230 	EXP 	Created target_image = ImageStim(__class__=<class 'psychopy.visual.image.ImageStim'>, anchor=('center', 'center'), autoLog=True, color=array([1., 1., 1.]), colorSpace='rgb', contrast=1.0, depth=-8.0, draggable=False, flipHoriz=False, flipVert=False, image='default.png', interpolate=True, mask=None, maskParams=None, name='target_image', opacity=1.0, ori=0.0, pos=array([0., 0.]), size=array([0.2, 0.2]), texRes=128.0, units='height', win=Window(...))
307.0231 	EXP 	window1: mouseVisible = True
307.0318 	EXP 	Created end_screen_instructions = TextStim(__class__=<class 'psychopy.visual.text.TextStim'>, alignHoriz=method-wrapper(...), alignText='center', alignVert=method-wrapper(...), anchorHoriz='center', anchorVert='center', antialias=True, autoDraw=False, autoLog=True, bold=False, color=array([1., 1., 1.]), colorSpace='rgb', contrast=1.0, depth=0.0, draggable=False, flipHoriz=False, flipVert=False, font='Open Sans', fontFiles=[], height=0.05, italic=False, languageStyle='LTR', name='end_screen_instructions', opacity=1.0, ori=0.0, pos=array([0., 0.]), rgb=UNKNOWN, text=str(...), units='height', win=Window(...), wrapWidth=1)
0.1630 	EXP 	welcome_message: autoDraw = True
2.7565 	EXP 	welcome_message: autoDraw = False
2.7565 	EXP 	instructions_general_text: autoDraw = True
2.7565 	EXP 	dot: autoDraw = True
3.6358 	EXP 	instructions_general_text: autoDraw = False
3.6358 	EXP 	dot: autoDraw = False
3.6358 	EXP 	instructions_shape_text: autoDraw = True
3.6358 	EXP 	instr_shape_square: autoDraw = True
3.6358 	EXP 	instr_shape_cross: autoDraw = True
3.6358 	EXP 	instr_shape_plus: autoDraw = True
4.5477 	EXP 	Imported shapes_targets.csv as conditions, 6 conditions, 1 params
4.5479 	EXP 	Created sequence: random, trialTypes=6, nReps=1, seed=None
4.5481 	EXP 	New trial (rep=0, index=0): OrderedDict([('TargetImage', '../../stimuli/shapes/target_plus.jpg')])
4.6630 	EXP 	instructions_shape_text: autoDraw = False
4.6630 	EXP 	instr_shape_square: autoDraw = False
4.6630 	EXP 	instr_shape_cross: autoDraw = False
4.6630 	EXP 	instr_shape_plus: autoDraw = False
4.6630 	EXP 	target_image: image = '../../stimuli/shapes/target_plus.jpg'
4.6630 	EXP 	ptrial_shape_square: autoDraw = True
4.6630 	EXP 	ptrial_shape_cross: autoDraw = True
4.6630 	EXP 	ptrial_shape_plus: autoDraw = True
5.0376 	EXP 	left_far_tile: autoDraw = True
5.0376 	EXP 	left_mid_tile: autoDraw = True
5.0376 	EXP 	right_mid_tile: autoDraw = True
5.0376 	EXP 	right_far_tile: autoDraw = True
5.7640 	EXP 	target_image: autoDraw = True
5.9707 	EXP 	target_image: autoDraw = False
6.5221 	EXP 	New trial (rep=0, index=1): OrderedDict([('TargetImage', '../../stimuli/shapes/target_cross.jpg')])
6.5930 	EXP 	ptrial_shape_square: autoDraw = False
6.5930 	EXP 	ptrial_shape_cross: autoDraw = False
6.5930 	EXP 	ptrial_shape_plus: autoDraw = False
6.5930 	EXP 	left_far_tile: autoDraw = False
6.5930 	EXP 	left_mid_tile: autoDraw = False
6.5930 	EXP 	right_mid_tile: autoDraw = False
6.5930 	EXP 	right_far_tile: autoDraw = False
6.5930 	EXP 	target_image: autoDraw = False
6.5930 	EXP 	target_image: image = '../../stimuli/shapes/target_cross.jpg'
6.5930 	EXP 	ptrial_shape_square: autoDraw = True
6.5930 	EXP 	ptrial_shape_cross: autoDraw = True
6.5930 	EXP 	ptrial_shape_plus: autoDraw = True
7.0361 	EXP 	left_far_tile: autoDraw = True
7.0361 	EXP 	left_mid_tile: autoDraw = True
7.0361 	EXP 	right_mid_tile: autoDraw = True
7.0361 	EXP 	right_far_tile: autoDraw = True
7.5357 	EXP 	target_image: autoDraw = True
7.7354 	EXP 	target_image: autoDraw = False
8.0032 	EXP 	New trial (rep=0, index=2): OrderedDict([('TargetImage', '../../stimuli/shapes/target_square.jpg')])
8.0823 	EXP 	ptrial_shape_square: autoDraw = False
8.0823 	EXP 	ptrial_shape_cross: autoDraw = False
8.0823 	EXP 	ptrial_shape_plus: autoDraw = False
8.0823 	EXP 	left_far_tile: autoDraw = False
8.0823 	EXP 	left_mid_tile: autoDraw = False
8.0823 	EXP 	right_mid_tile: autoDraw = False
8.0823 	EXP 	right_far_tile: autoDraw = False
8.0823 	EXP 	target_image: autoDraw = False
8.0823 	EXP 	target_image: image = '../../stimuli/shapes/target_square.jpg'
8.0823 	EXP 	ptrial_shape_square: autoDraw = True
8.0823 	EXP 	ptrial_shape_cross: autoDraw = True
8.0823 	EXP 	ptrial_shape_plus: autoDraw = True
8.5187 	EXP 	left_far_tile: autoDraw = True
8.5187 	EXP 	left_mid_tile: autoDraw = True
8.5187 	EXP 	right_mid_tile: autoDraw = True
8.5187 	EXP 	right_far_tile: autoDraw = True
9.2181 	EXP 	target_image: autoDraw = True
9.4174 	EXP 	target_image: autoDraw = False
9.7034 	EXP 	New trial (rep=0, index=3): OrderedDict([('TargetImage', '../../stimuli/shapes/target_cross.jpg')])
9.7639 	EXP 	ptrial_shape_square: autoDraw = False
9.7639 	EXP 	ptrial_shape_cross: autoDraw = False
9.7639 	EXP 	ptrial_shape_plus: autoDraw = False
9.7639 	EXP 	left_far_tile: autoDraw = False
9.7639 	EXP 	left_mid_tile: autoDraw = False
9.7639 	EXP 	right_mid_tile: autoDraw = False
9.7639 	EXP 	right_far_tile: autoDraw = False
9.7639 	EXP 	target_image: autoDraw = False
9.7639 	EXP 	target_image: image = '../../stimuli/shapes/target_cross.jpg'
9.7639 	EXP 	ptrial_shape_square: autoDraw = True
9.7639 	EXP 	ptrial_shape_cross: autoDraw = True
9.7639 	EXP 	ptrial_shape_plus: autoDraw = True
10.2162 	EXP 	left_far_tile: autoDraw = True
10.2162 	EXP 	left_mid_tile: autoDraw = True
10.2162 	EXP 	right_mid_tile: autoDraw = True
10.2162 	EXP 	right_far_tile: autoDraw = True
10.4051 	EXP 	New trial (rep=0, index=4): OrderedDict([('TargetImage', '../../stimuli/shapes/target_square.jpg')])
10.4672 	EXP 	ptrial_shape_square: autoDraw = False
10.4672 	EXP 	ptrial_shape_cross: autoDraw = False
10.4672 	EXP 	ptrial_shape_plus: autoDraw = False
10.4672 	EXP 	left_far_tile: autoDraw = False
10.4672 	EXP 	left_mid_tile: autoDraw = False
10.4672 	EXP 	right_mid_tile: autoDraw = False
10.4672 	EXP 	right_far_tile: autoDraw = False
10.4672 	EXP 	target_image: autoDraw = False
10.4672 	EXP 	target_image: image = '../../stimuli/shapes/target_square.jpg'
10.4672 	EXP 	ptrial_shape_square: autoDraw = True
10.4672 	EXP 	ptrial_shape_cross: autoDraw = True
10.4672 	EXP 	ptrial_shape_plus: autoDraw = True
10.6508 	EXP 	New trial (rep=0, index=5): OrderedDict([('TargetImage', '../../stimuli/shapes/target_plus.jpg')])
10.7159 	EXP 	ptrial_shape_square: autoDraw = False
10.7159 	EXP 	ptrial_shape_cross: autoDraw = False
10.7159 	EXP 	ptrial_shape_plus: autoDraw = False
10.7159 	EXP 	left_far_tile: autoDraw = False
10.7159 	EXP 	left_mid_tile: autoDraw = False
10.7159 	EXP 	right_mid_tile: autoDraw = False
10.7159 	EXP 	right_far_tile: autoDraw = False
10.7159 	EXP 	target_image: autoDraw = False
10.7159 	EXP 	target_image: image = '../../stimuli/shapes/target_plus.jpg'
10.7159 	EXP 	ptrial_shape_square: autoDraw = True
10.7159 	EXP 	ptrial_shape_cross: autoDraw = True
10.7159 	EXP 	ptrial_shape_plus: autoDraw = True
10.8994 	EXP 	ptrial_shape_square: autoDraw = False
10.8994 	EXP 	ptrial_shape_cross: autoDraw = False
10.8994 	EXP 	ptrial_shape_plus: autoDraw = False
10.8994 	EXP 	left_far_tile: autoDraw = False
10.8994 	EXP 	left_mid_tile: autoDraw = False
10.8994 	EXP 	right_mid_tile: autoDraw = False
10.8994 	EXP 	right_far_tile: autoDraw = False
10.8994 	EXP 	target_image: autoDraw = False
10.8994 	EXP 	end_screen_instructions: autoDraw = True
11.7154 	EXP 	end_screen_instructions: autoDraw = False
11.7155 	EXP 	crrt_exp: status = STOPPED
11.7965 	EXP 	window1: mouseVisible = True
