﻿thisRow.t,notes,welcome.started,welcome_message.started,spacebar_welcome.started,welcome.stopped,spacebar_welcome.keys,spacebar_welcome.rt,spacebar_welcome.duration,instructions_general.started,instructions_general_text.started,spacebar_instructions_general.started,dot.started,instructions_general.stopped,spacebar_instructions_general.keys,spacebar_instructions_general.rt,spacebar_instructions_general.duration,instructions_shape.started,instructions_shape_text.started,spacebar_instructions_shape.started,image.started,instructions_shape.stopped,spacebar_instructions_shape.keys,spacebar_instructions_shape.rt,spacebar_instructions_shape.duration,end_screen.started,end_screen_instructions.started,spacebar_end.started,end_screen.stopped,spacebar_end.keys,spacebar_end.rt,spacebar_end.duration,participant,session,age,left-handed,Do you like this session?,date,expName,psychopyVersion,frameRate,expStart,
,,0.07379420000143,0.14095570000063162,0.14095570000063162,4.874617200001012,space,4.7267388999989635,None,,,,,,,,,,,,,,,,,,,,,,,,,,,False,Yes,2024-02-13_12h05.43.321,crrt_exp,2023.2.3,60.70642856828901,2024-02-13 12h05.52.049827 +0100,
,,,,,,,,,4.874662100000933,4.88840700000037,4.88840700000037,4.88840700000037,6.640786900001331,space,1.7456258999991405,None,,,,,,,,,,,,,,,,,,,False,Yes,2024-02-13_12h05.43.321,crrt_exp,2023.2.3,60.70642856828901,2024-02-13 12h05.52.049827 +0100,
,,,,,,,,,,,,,,,,,6.640862199999901,6.8523163000008935,6.8523163000008935,6.8523163000008935,44.37528240000029,space,37.50902850000057,None,,,,,,,,,,,False,Yes,2024-02-13_12h05.43.321,crrt_exp,2023.2.3,60.70642856828901,2024-02-13 12h05.52.049827 +0100,
,,,,,,,,,,,,,,,,,,,,,,,,,44.37536050000017,44.389041800000996,44.389041800000996,45.27339470000152,space,0.8732371000005514,None,,,,False,Yes,2024-02-13_12h05.43.321,crrt_exp,2023.2.3,60.70642856828901,2024-02-13 12h05.52.049827 +0100,
