﻿thisRow.t,notes,welcome.started,welcome_message.started,spacebar_welcome.started,welcome.stopped,spacebar_welcome.keys,spacebar_welcome.rt,spacebar_welcome.duration,instructions_general.started,instructions_general_text.started,spacebar_instructions_general.started,instructions_general.stopped,spacebar_instructions_general.keys,spacebar_instructions_general.rt,spacebar_instructions_general.duration,end_screen.started,text.started,spacebar_end.started,end_screen.stopped,spacebar_end.keys,spacebar_end.rt,spacebar_end.duration,participant,session,age,left-handed,Do you like this session?,date,expName,psychopyVersion,frameRate,expStart,
,,0.07448480000130075,0.15959430000111752,0.15959430000111752,6.005763700000898,space,5.833392700000331,None,,,,,,,,,,,,,,,,,,False,Yes,2024-02-13_11h42.38.141,crrt_exp,2023.2.3,59.931989178636485,2024-02-13 11h42.45.718391 +0100,
,,,,,,,,,6.005856600000698,6.0199416000014025,6.0199416000014025,6.589955100000225,space,0.5668028999989474,None,,,,,,,,,,,False,Yes,2024-02-13_11h42.38.141,crrt_exp,2023.2.3,59.931989178636485,2024-02-13 11h42.45.718391 +0100,
,,,,,,,,,,,,,,,,6.590028900000107,6.604537700000947,6.604537700000947,8.021570700000666,space,1.4003482999996777,None,,,,False,Yes,2024-02-13_11h42.38.141,crrt_exp,2023.2.3,59.931989178636485,2024-02-13 11h42.45.718391 +0100,
